{
    "eng": {
        "err1": "Opps, I didn't get that.",
        "err2": "Sorry, I didn't get that.",
        "err3": "The age you specified is invalid.",
        "err4": "That is not a valid age.",
        "err5": "That is too tall for a human height. Please try again.",
        "err6": "That is too short for a human height. Please try again.",
        "err7": "That weight is too heavy. Please try again.",
        "err8": "That weight is too light. Please try again.",
        "err9": "You have already selected that condition.",
        "err10": "I can't find what you've been looking for.",
        "err11": "You have already added that medication.",
        "err12": "Please try again."
    },
    "tag": {
        "err1": "Pasensya na, hindi ko yun naintindihan.",
        "err2": "Sorry, hindi ko yun naintindihan.",
        "err3": "Invalid ang edad na binigay mo.",
        "err4": "Hindi yan valid na edad.",
        "err5": "Masyadong matangkad iyan para sa tangkad ng tao. Pakisubukan uli.",
        "err6": "Masyadong maliit iyan para sa tangkad ng tao. Pakisubukan uli.",
        "err7": "Masyadong mabigat ang timbang na iyan. Pakisubukan uli.",
        "err8": "Masyadong magaan ang timbang na iyan. Pakisubukan uli.",
        "err9": "Napili mo na ang kondisyon na iyan.",
        "err10": "Hindi ko makita ang hinahanap mo.",
        "err11": "Nadagdag mo na ang gamot na iyan.",
        "err12": "Pakisubukan uli."
    },
    "hil": {
        "err1": "Sensya, di ko sini kaintindi.",
        "err2": "Sensya, di ko sini kaintindi.",
        "err3": "Invalid ang edad nga imo ginbutang.",
        "err4": "Invalid ang edad nga imo ginbutang.",
        "err5": "Ini sobra ka taas para sa isa ka tawo. Lihog enter liwat sang imo height.",
        "err6": "Ini sobra ka nubo para sa isa ka tawo. Lihog enter liwat sang imo height.",
        "err7": "Daw sobra ini ka bug-at. Lihog enter liwat sang imo weight.",
        "err8": "Daw sobra ini ka mag-an. Lihog enter liwat sang imo weight.",
        "err9": "Napili mo na ini nga kondisyon.",
        "err10": "Di ko makita ang imo nga ginapangita.",
        "err11": "Nabutang mo na ini nga bulong.",
        "err12": "Lihog enter liwat."
    },
    "khm": {
        "err1": "ខ្ញុំមិនយល់ទេ",
        "err2": "សុំទោស ខ្ញុំមិនយល់ទេ",
        "err3": "អាយុដែលអ្នកបានបញ្ចូលមិនត្រឹមត្រូវទេ",
        "err4": "អាយុមិនត្រឹមត្រូវទេ",
        "err5": "កម្ពស់នេះខ្ពស់ពេកសម្រាប់មនុស្សទូទៅ សូមព្យាយាមម្តងទៀត",
        "err6": "កម្ពស់នេះទាបពេកសម្រាប់មនុស្សទូទៅ សូមព្យាយាមម្តងទៀត",
        "err7": "ទម្ងន់ធ្ងន់ពេក សូមព្យាយាមម្តងទៀត",
        "err8": "ទម្ងន់ស្រាលពេក សូមព្យាយាមម្តងទៀត",
        "err9": "អ្នកបានជ្រើសរើសលក្ខខណ្ឌនោះរួចរាល់ហើយ",
        "err10": "ខ្ញុំមិនអាចផ្តល់អោយនូវអ្វីដែលអ្នកកំពុងស្វែងរកនោះទេ",
        "err11": "អ្នកបានវាយបញ្ចូលថ្នាំនោះរួចរាល់ហើយ",
        "err12": "សូម​ព្យាយាម​ម្តង​ទៀត."
    },
    "kan": {
        "err1": "ಓಪ್ಸ್, ನಾನು ಅದನ್ನು ಪಡೆಯಲಿಲ್ಲ.",
        "err2": "ಕ್ಷಮಿಸಿ, ನನಗೆ ಅದು ಅರ್ಥವಾಗಲಿಲ್ಲ",
        "err3": "ನೀವು ನಿರ್ದಿಷ್ಟಪಡಿಸಿದ ವಯಸ್ಸು ಅಮಾನ್ಯವಾಗಿದೆ.",
        "err4": "ಅದು ಮಾನ್ಯ ವಯಸ್ಸು ಅಲ್ಲ.",
        "err5": "ಅದು ಮಾನವನ ಎತ್ತರಕ್ಕೆ ತುಂಬಾ ಎತ್ತರವಾಗಿದೆ. ದಯವಿಟ್ಟು ಪುನಃ ಪ್ರಯತ್ನಿಸಿ.",
        "err6": "ಅದು ಮಾನವನ ಎತ್ತರಕ್ಕೆ ತುಂಬಾ ಚಿಕ್ಕದಾಗಿದೆ. ದಯವಿಟ್ಟು ಪುನಃ ಪ್ರಯತ್ನಿಸಿ.",
        "err7": "ಆ ತೂಕ ತುಂಬಾ ಭಾರವಾಗಿರುತ್ತದೆ. ದಯವಿಟ್ಟು ಪುನಃ ಪ್ರಯತ್ನಿಸಿ.",
        "err8": "ಆ ತೂಕ ತುಂಬಾ ಕಡಿಮೆ. ದಯವಿಟ್ಟು ಪುನಃ ಪ್ರಯತ್ನಿಸಿ.",
        "err9": "ನೀವು ಈಗಾಗಲೇ ಆ ಸ್ಥಿತಿಯನ್ನು ಆರಿಸಿದ್ದೀರಿ.",
        "err10": "ನೀವು ಹುಡುಕುತ್ತಿರುವುದನ್ನು ನಾನು ಕಂಡುಹಿಡಿಯಲು ಸಾಧ್ಯವಿಲ್ಲ.",
        "err11": "ನೀವು ಈಗಾಗಲೇ ಆ ಚಿಕಿತ್ಸೆಯನ್ನು ಸೇರಿಸಿದ್ದೀರಿ",
        "err12": "ದಯವಿಟ್ಟು ಪುನಃ ಪ್ರಯತ್ನಿಸಿ."
    },
    "hin" : {
        "err1" : "उफ़, मुझे वह नहीं मिला।",
        "err2" : "क्षमा करें, मुझे वह नहीं मिला।",
        "err3" : "आपके द्वारा निर्दिष्ट आयु अमान्य है।",
        "err4" : "यह मान्य आयु नहीं है।",
        "err5" : "मानव ऊंचाई के लिए यह बहुत लंबा है। कृपया पुन: प्रयास करें।",
        "err6" : "मानव ऊंचाई के लिए यह बहुत कम है। कृपया पुन: प्रयास करें।",
        "err7" : "वह वजन बहुत भारी है। कृपया पुन: प्रयास करें।",
        "err8" : "वह वजन बहुत हल्का है। कृपया पुन: प्रयास करें।",
        "err9" : "आपने उस शर्त को पहले ही चुन लिया है।",
        "err10" : "मुझे वह नहीं मिला, जिसे आप ढूंढ रहे हैं।",
        "err11" : "आप उस दवा को पहले ही जोड़ चुके हैं।",
        "err12" : "कृपया पुन: प्रयास करें|"
      }
}