{
	"service1": {
		"display":"Order medicines",
		"items" : [
			{"id":"1","display":"Prescription Medicines"},
			{"id":"2","display":"Over-the-counter' Medicines"},
			{"id":"3","display":"Nutritional Products"}
		]
	},

	"service2":{
		"display":"Order health insurance and other health services",
		"items" : [
			{"id":"1","display":"Affordable health insurance"},
			{"id":"2","display":"Vaccines"},
			{"id":"3","display":"Diagnostic Test Services"}
		]
	},

	"service3":{
		"display":"Have access to health education materials",
		"items" : [
			{"id":"1","display":"Read latest health tips/information"},
			{"id":"2","display":"Receive regular health support reminders"},
			{"id":"3","display":"Get health coaching and information through Facebook"}
		]
	},

	"service4":{
		"display":"Find local health events/campaigns in my community",
		"items" : [
			{"id":"1","display":"Local health events on diseases"},
			{"id":"2","display":"Doctor visits to the community"},
			{"id":"3","display":"Individual health campaigns"},
			{"id":"4","display":"Support group campaigns"}
		]
	}
}